[
    {
        "id": 1,
        "name": "US West",
        "parent": null
    },
    {
        "id": 2,
        "name": "California",
        "parent": "US West"
    },
    {
        "id": 3,
        "name": "Oregon",
        "parent": "US West"
    },
    {
        "id": 4,
        "name": "Washington",
        "parent": "US West"
    },
    {
        "id": 5,
        "name": "US East",
        "parent": null
    },
    {
        "id": 6,
        "name": "Florida",
        "parent": "US East"
    },
    {
        "id": 7,
        "name": "North Carolina",
        "parent": "US East"
    },
    {
        "id": 8,
        "name": "Massachusets",
        "parent": "US East"
    },
    {
        "id": 9,
        "name": "New Jersey",
        "parent": "US East"
    },
    {
        "id": 10,
        "name": "New York",
        "parent": "US East"
    },
    {
        "id": 11,
        "name": "US Central",
        "parent": null
    },
    {
        "id": 12,
        "name": "Texas",
        "parent": "US Central"
    },
    {
        "id": 13,
        "name": "Ohio",
        "parent": "US Central"
    },
    {
        "id": 14,
        "name": "Europe",
        "parent": null
    },
    {
        "id": 15,
        "name": "Germany",
        "parent": "EU"
    },
    {
        "id": 16,
        "name": "France",
        "parent": "EU"
    },
    {
        "id": 17,
        "name": "Italy",
        "parent": "EU"
    },
    {
        "id": 18,
        "name": "Caribbean",
        "parent": null
    },
    {
        "id": 19,
        "name": "Australia",
        "parent": null
    },
    {
        "id": 20,
        "name": "Japan",
        "parent": null
    },
    {
        "id": 21,
        "name": "China",
        "parent": null
    }
]