{
    "type": "SIMs",
    "startIndex": 0,
    "totalCount": 12,
    "count": 12,
    "list": [
        {
            "type": "SIM",
            "name": "Curtis' SIM #1",
            "simId": 1,
            "iccId": 249515516699212500,
            "assigned": true,
            "status": "active",
            "groupId": 2,
            "userId": 1
        },
        {
            "type": "SIM",
            "name": "Alan's SIM #1",
            "simId": 2,
            "iccId": 842031324059166411,
            "assigned": true,
            "status": "active",
            "groupId": 2,
            "userId": 2
        },
        {
            "type": "SIM",
            "name": "Raghu's SIM #1",
            "simId": 3,
            "iccId": 324529529608592255,
            "assigned": true,
            "status": "active",
            "groupId": 1,
            "userId": 6
        },
        {
            "type": "SIM",
            "name": "Cliff's SIM #1",
            "simId": 4,
            "iccId": 250485487692275472,
            "assigned": true,
            "status": "active",
            "groupId": 1,
            "userId": 4
        },
        {
            "type": "SIM",
            "name": "Ron's SIM #1",
            "simId": 5,
            "iccId": 274172209491468023,
            "assigned": true,
            "status": "active",
            "groupId": 6,
            "userId": 5
        },
        {
            "type": "SIM",
            "name": "Raghu's SIM #2",
            "simId": 6,
            "iccId": 227540420973852266,
            "assigned": true,
            "status": "active",
            "groupId": 1,
            "userId": 6
        },
        {
            "type": "SIM",
            "name": "Sanket's SIM #1",
            "simId": 7,
            "iccId": 449072619871540401,
            "assigned": true,
            "status": "active",
            "groupId": null,
            "userId": 7
        },
        {
            "type": "SIM",
            "name": "Tony's SIM #1",
            "simId": 8,
            "iccId": 111573473223076268,
            "assigned": true,
            "status": "active",
            "groupId": 2,
            "userId": 8
        },
        {
            "type": "SIM",
            "name": "Ravi's SIM #1",
            "simId": 9,
            "iccId": 946452782484634841,
            "assigned": true,
            "status": "active",
            "groupId": 1,
            "userId": 9
        },
        {
            "type": "SIM",
            "name": "Tony's SIM #2",
            "simId": 10,
            "iccId": 653146692287880002,
            "assigned": true,
            "status": "active",
            "groupId": 2,
            "userId": 8
        },
        {
            "type": "SIM",
            "name": "Curtis' SIM #2",
            "simId": 11,
            "iccId": 800490768768980018,
            "assigned": true,
            "status": "active",
            "groupId": 2,
            "userId": 1
        },
        {
            "type": "SIM",
            "name": "Curtis' SIM #3",
            "simId": 12,
            "iccId": 886492789723462961,
            "assigned": true,
            "status": "active",
            "groupId": 2,
            "userId": 1
        },
        {
            "type": "SIM",
            "name": "Ravis's SIM #2",
            "simId": 13,
            "iccId": 832572346790586213,
            "assigned": true,
            "status": "active",
            "groupId": 1,
            "userId": 9
        },
        {
            "type": "SIM",
            "name": "",
            "simId": 14,
            "iccId": 854357234578234596,
            "assigned": false,
            "status": "active",
            "groupId": null,
            "userId": null
        },
        {
            "type": "SIM",
            "name": null,
            "simId": 15,
            "iccId": 245678236572348956,
            "assigned": false,
            "status": "active",
            "groupId": null,
            "userId": null
        }
    ]
}