{
  "type": "AlertsResponse",
  "count": 3,
  "totalCount": 3,
  "list": [
    {
      "type": "AlertConfiguration",
      "alertId": 1,
      "accountId": 1,
      "alertType": "ACCOUNT_CUMULATIVE",
      "alertSpecification": {
        "enable": true,
        "limitValue": "$1000",
        "limitType": "COST",
        "triggerCount": 7,
        "actions": ["Email"]
      }
    },
    {
      "type": "AlertConfiguration",
      "alertId": 2,
      "accountId": 1,
      "alertType": "ACCOUNT_CUMULATIVE",
      "alertSpecification": {
        "enable": true,
        "limitValue": "$1500",
        "limitType": "COST",
        "triggerCount": 1,
        "actions": ["Email"]
      }
    },
    {
      "type": "AlertConfiguration",
      "alertId":3,
      "accountId":1,
      "alertType": "ACCOUNT_CUMULATIVE",
      "alertSpecification": {
        "enable": false,
        "limitValue": "$2000",
        "limitType": "COST",
        "triggerCount": 0,
        "actions": ["Disable"]
      }
    }
  ]
}