{
  "type": "AlertsResponse",
  "count": 12,
  "totalCount": 12,
  "list": [{
    "type": "AlertConfiguration",
    "alertId": 1,
    "accountId": 1,
    "alertType": "ACCOUNT_CUMULATIVE",
    "accountName": "Company Name",
    "alertSpecification": {
      "enable": true,
      "limitValue": "$1000",
      "limitType": "COST",
      "triggerCount": 7,
      "actions": ["Email"]
    },
    "alertActionTaken": "2016-01-12 13:17:08"
  }, {
    "type": "AlertConfiguration",
    "alertId": 2,
    "accountId": 1,
    "alertType": "ACCOUNT_CUMULATIVE",
    "accountName": "Company Name",
    "alertSpecification": {
      "enable": false,
      "limitValue": "$2000",
      "limitType": "COST",
      "triggerCount": 0,
      "actions": ["Disable"]
    },
    "alertActionTaken": "2016-01-12 13:17:08"
  }, {
    "type": "AlertConfiguration",
    "alertId": 3,
    "accountId": 1,
    "alertType": "ZONE_CUMULATIVE",
    "accountName": "Company Name",
    "zoneId": 1,
    "zoneName": "zone_1",
    "alertSpecification": {
      "enable": true,
      "limitValue": "$1000",
      "limitType": "COST",
      "triggerCount": 0,
      "actions": ["Email"]
    },
    "alertActionTaken": "2016-01-12 13:17:08"
  }, {
    "type": "AlertConfiguration",
    "alertId": 4,
    "accountId": 1,
    "alertType": "ZONE_CUMULATIVE",
    "accountName": "Company Name",
    "zoneId": 1,
    "zoneName": "zone_1",
    "alertSpecification": {
      "enable": true,
      "limitValue": "$2000",
      "limitType": "COST",
      "triggerCount": 0,
      "actions": ["Disable"]
    },
    "alertActionTaken": "2016-01-12 13:17:08"
  }, {
    "type": "AlertConfiguration",
    "alertId": 5,
    "accountId": 1,
    "alertType": "DEFAULT_PER_SIM_PER_ACCOUNT",
    "alertSpecification": {
      "enable": true,
      "limitValue": "1500",
      "limitType": "DATA",
      "triggerCount": 1,
      "actions": ["Email"]
    },
    "iccId": "0123456789012345",
    "alertActionTaken": "2016-01-12 13:17:08"
  }, {
    "type": "AlertConfiguration",
    "alertId": 6,
    "accountId": 1,
    "alertType": "DEFAULT_PER_SIM_PER_ACCOUNT",
    "alertSpecification": {
      "enable": false,
      "limitValue": "2000",
      "limitType": "DATA",
      "triggerCount": 0,
      "actions": ["Disable"]
    },
    "iccId": "0123456789012345",
    "alertActionTaken": "2016-01-12 13:17:08"
  }, {
    "type": "AlertConfiguration",
    "alertId": 7,
    "accountId": 1,
    "alertType": "PER_SIM_PER_ZONE",
    "zoneId": 2,
    "zoneName": "zone_2",
    "alertSpecification": {
      "enable": false,
      "limitValue": "1500",
      "limitType": "DATA",
      "triggerCount": 1,
      "actions": ["Email"]
    },
    "iccId": "0123456789012345",
    "alertActionTaken": "2016-01-12 13:17:08"
  }, {
    "type": "AlertConfiguration",
    "alertId": 8,
    "accountId": 1,
    "alertType": "PER_SIM_PER_ZONE",
    "zoneId": 3,
    "zoneName": "zone_3",
    "alertSpecification": {
      "enable": true,
      "limitValue": "2000",
      "limitType": "DATA",
      "triggerCount": 0,
      "actions": ["Disable"]
    },
    "iccId": "0123456789012345",
    "alertActionTaken": "2016-01-12 13:17:08"
  }, {
    "type": "AlertConfiguration",
    "alertId": 9,
    "accountId": 111227,
    "accountName": "Group1-new",
    "alertType": "DEFAULT_PER_SIM_PER_ACCOUNT",
    "alertSpecification": {
      "enable": true,
      "limitValue": "2048",
      "limitType": "DATA",
      "triggerCount": 7,
      "actions": [
        "Email"
      ]
    },
    "iccId": "0123456789012345",
    "alertActionTaken": "2016-01-12 13:17:08"
  }, {
    "type": "AlertConfiguration",
    "alertId": 10,
    "accountId": 111227,
    "accountName": "Group1-new",
    "alertType": "DEFAULT_PER_SIM_PER_ACCOUNT",
    "alertSpecification": {
      "enable": false,
      "limitValue": "3072",
      "limitType": "DATA",
      "triggerCount": 8,
      "actions": ["DISABLE"]
    },
    "iccId": "0123456789012345",
    "alertActionTaken": "2016-01-12 13:17:08"
  }, {
    "type": "AlertConfiguration",
    "alertId": 11,
    "accountId": 111227,
    "accountName": "Uber",
    "alertType": "PER_SIM_PER_ZONE",
    "zoneId": 4,
    "zoneName": "zone_1",
    "alertSpecification": {
      "enable": true,
      "limitValue": "1500",
      "limitType": "DATA",
      "actions": ["Email"],
      "triggerCount": 3
    },
    "iccId": "0123456789012345",
    "alertActionTaken": "2016-01-12 13:17:08"
  }, {
    "type": "AlertConfiguration",
    "alertId": 12,
    "accountId": 111227,
    "accountName": "Uber",
    "alertType": "PER_SIM_PER_ZONE",
    "zoneId": 4,
    "zoneName": "zone_1",
    "alertSpecification": {
      "enable": true,
      "limitValue": "2000",
      "limitType": "DATA",
      "actions": ["DISABLE"],
      "triggerCount": 1
    },
    "iccId": "0123456789012345",
    "alertActionTaken": "2016-01-12 13:17:08"
  }, {
    "type": "AlertConfiguration",
    "alertId": 13,
    "alertType": "PER_SIM_CUSTOM",
    "alertSpecification": {
      "enable": true,
      "limitValue": "1500",
      "limitType": "DATA",
      "actions": ["Email"],
      "triggerCount": 3
    },
    "iccId": "0123456789012345",
    "alertActionTaken": "2016-01-12 13:17:08"
  }, {
    "type": "AlertConfiguration",
    "alertId": 14,
    "alertType": "PER_SIM_CUSTOM",
    "alertSpecification": {
      "enable": true,
      "limitValue": "2000",
      "limitType": "DATA",
      "actions": ["DISABLE"],
      "triggerCount": 1
    },
    "iccId": "0123456789012345",
    "alertActionTaken": "2016-01-12 13:17:08"
  }]
}