[
    {
        "key": "Asia",
        "bar": true,
        "values": [
            {
                "x": 1444172543097,
                "y": 2600
            },
            {
                "x": 1444777343097,
                "y": 2000
            },
            {
                "x": 1445382143097,
                "y": 1200
            },
            {
                "x": 1445986943097,
                "y": 1384
            }
        ]
    },
    {
        "key": "Australia",
        "bar": true,
        "values": [
            {
                "x": 1444172543097,
                "y": 156
            },
            {
                "x": 1444777343097,
                "y": 150
            },
            {
                "x": 1445382143097,
                "y": 166
            },
            {
                "x": 1445986943097,
                "y": 184
            }
        ]
    },
    {
        "key": "China",
        "bar": true,
        "values": [
            {
                "x": 1444172543097,
                "y": 400
            },
            {
                "x": 1444777343097,
                "y": 1234
            },
            {
                "x": 1445382143097,
                "y": 700
            },
            {
                "x": 1445986943097,
                "y": 862
            }
        ]
    },
    {
        "key": "Europe",
        "bar": true,
        "values": [
            {
                "x": 1444172543097,
                "y": 927
            },
            {
                "x": 1444777343097,
                "y": 927
            },
            {
                "x": 1445382143097,
                "y": 927
            },
            {
                "x": 1445986943097,
                "y": 930
            }
        ]
    },
    {
        "key": "Florida",
        "bar": true,
        "values": [
            {
                "x": 1444172543097,
                "y": 100
            },
            {
                "x": 1444777343097,
                "y": 80
            },
            {
                "x": 1445382143097,
                "y": 60
            },
            {
                "x": 1445986943097,
                "y": 153
            }
        ]
    },
    {
        "key": "France",
        "bar": true,
        "values": [
            {
                "x": 1444172543097,
                "y": 1236
            },
            {
                "x": 1444777343097,
                "y": 3214
            },
            {
                "x": 1445382143097,
                "y": 1023
            },
            {
                "x": 1445986943097,
                "y": 1624
            }
        ]
    },
    {
        "key": "Germany",
        "bar": true,
        "values": [
            {
                "x": 1444172543097,
                "y": 2314
            },
            {
                "x": 1444777343097,
                "y": 3214
            },
            {
                "x": 1445382143097,
                "y": 1445
            },
            {
                "x": 1445986943097,
                "y": 721
            }
        ]
    },
    {
        "key": "India",
        "bar": true,
        "values": [
            {
                "x": 1444172543097,
                "y": 250
            },
            {
                "x": 1444777343097,
                "y": 240
            },
            {
                "x": 1445382143097,
                "y": 260
            },
            {
                "x": 1445986943097,
                "y": 273
            }
        ]
    },
    {
        "key": "Italy",
        "bar": true,
        "values": [
            {
                "x": 1444172543097,
                "y": 80
            },
            {
                "x": 1444777343097,
                "y": 90
            },
            {
                "x": 1445382143097,
                "y": 110
            },
            {
                "x": 1445986943097,
                "y": 120
            }
        ]
    },
    {
        "key": "Japan",
        "bar": true,
        "values": [
            {
                "x": 1444172543097,
                "y": 1500
            },
            {
                "x": 1444777343097,
                "y": 2000
            },
            {
                "x": 1445382143097,
                "y": 1200
            },
            {
                "x": 1445986943097,
                "y": 2655
            }
        ]
    },
    {
        "key": "Massachusets",
        "bar": true,
        "values": [
            {
                "x": 1444172543097,
                "y": 250
            },
            {
                "x": 1444777343097,
                "y": 250
            },
            {
                "x": 1445382143097,
                "y": 250
            },
            {
                "x": 1445986943097,
                "y": 250
            }
        ]
    },
    {
        "key": "New Jersey",
        "bar": true,
        "values": [
            {
                "x": 1444172543097,
                "y": 1400
            },
            {
                "x": 1444777343097,
                "y": 1230
            },
            {
                "x": 1445382143097,
                "y": 2309
            },
            {
                "x": 1445986943097,
                "y": 1750
            }
        ]
    },
    {
        "key": "New York",
        "bar": true,
        "values": [
            {
                "x": 1444172543097,
                "y": 1645
            },
            {
                "x": 1444777343097,
                "y": 1645
            },
            {
                "x": 1445382143097,
                "y": 1645
            },
            {
                "x": 1445986943097,
                "y": 1647
            }
        ]
    },
    {
        "key": "North Carolina",
        "bar": true,
        "values": [
            {
                "x": 1444172543097,
                "y": 200
            },
            {
                "x": 1444777343097,
                "y": 200
            },
            {
                "x": 1445382143097,
                "y": 200
            },
            {
                "x": 1445986943097,
                "y": 200
            }
        ]
    },
    {
        "key": "Ohio",
        "bar": true,
        "values": [
            {
                "x": 1444172543097,
                "y": 435
            },
            {
                "x": 1444777343097,
                "y": 421
            },
            {
                "x": 1445382143097,
                "y": 123
            },
            {
                "x": 1445986943097,
                "y": 909
            }
        ]
    },
    {
        "key": "Oregon",
        "bar": true,
        "values": [
            {
                "x": 1444172543097,
                "y": 250
            },
            {
                "x": 1444777343097,
                "y": 200
            },
            {
                "x": 1445382143097,
                "y": 400
            },
            {
                "x": 1445986943097,
                "y": 384
            }
        ]
    },
    {
        "key": "Texas",
        "bar": true,
        "values": [
            {
                "x": 1444172543097,
                "y": 412
            },
            {
                "x": 1444777343097,
                "y": 900
            },
            {
                "x": 1445382143097,
                "y": 567
            },
            {
                "x": 1445986943097,
                "y": 711
            }
        ]
    },
    {
        "key": "US West",
        "bar": true,
        "values": [
            {
                "x": 1444172543097,
                "y": 1173
            },
            {
                "x": 1444777343097,
                "y": 1173
            },
            {
                "x": 1445382143097,
                "y": 1173
            },
            {
                "x": 1445986943097,
                "y": 1173
            }
        ]
    }
]